{
	"_id": "64a76580fc37f3d3d930cf64",
	"firstName": "John",
	"lastName": "Doe",
	"email": "john.doe@gmail.com",
	"password":"canYouSEE",
	"isAdmin": false,
	"mobileNo":"045873517487",
	"enrollments": ["64ab4f96be38c98ad260a7fb"],
	"datetimeRegistered":"2023-07-26T11:57:00Z",
}
